{
    "faces": {
	"0": {
	    "id": 0,
	    "pts": [
		{
		    "x": 1000,
		    "y": 1618.0339900000001,
		    "z": 0
		},
		{
		    "x": -1000,
		    "y": 1618.0339900000001,
		    "z": 0
		},
		{
		    "x": 0,
		    "y": 1000,
		    "z": 1618.0339900000001
		}
	    ]
	},
	"1": {
	    "id": 1,
	    "pts": [
		{
		    "x": -1000,
		    "y": 1618.0339900000001,
		    "z": 0
		},
		{
		    "x": -1618.0339900000001,
		    "y": 0,
		    "z": 1000
		},
		{
		    "x": 0,
		    "y": 1000,
		    "z": 1618.0339900000001
		}
	    ]
	},
	"2": {
	    "id": 2,
	    "pts": [
		{
		    "x": 0,
		    "y": 1000,
		    "z": 1618.0339900000001
		},
		{
		    "x": -1618.0339900000001,
		    "y": 0,
		    "z": 1000
		},
		{
		    "x": 0,
		    "y": -1000,
		    "z": 1618.0339900000001
		}
	    ]
	},
	"3": {
	    "id": 3,
	    "pts": [
		{
		    "x": 0,
		    "y": -1000,
		    "z": 1618.0339900000001
		},
		{
		    "x": -1618.0339900000001,
		    "y": 0,
		    "z": 1000
		},
		{
		    "x": -1000,
		    "y": -1618.0339900000001,
		    "z": 0
		}
	    ]
	},
	"4": {
	    "id": 4,
	    "pts": [
		{
		    "x": 1000,
		    "y": -1618.0339900000001,
		    "z": 0
		},
		{
		    "x": -1000,
		    "y": -1618.0339900000001,
		    "z": 0
		},
		{
		    "x": 0,
		    "y": -1000,
		    "z": -1618.0339900000001
		}
	    ]
	},
	"5": {
	    "id": 5,
	    "pts": [
		{
		    "x": -1000,
		    "y": -1618.0339900000001,
		    "z": 0
		},
		{
		    "x": 1000,
		    "y": -1618.0339900000001,
		    "z": 0
		},
		{
		    "x": 0,
		    "y": -1000,
		    "z": 1618.0339900000001
		}
	    ]
	},
	"6": {
	    "id": 6,
	    "pts": [
		{
		    "x": 0,
		    "y": -1000,
		    "z": -1618.0339900000001
		},
		{
		    "x": 1618.0339900000001,
		    "y": 0,
		    "z": -1000
		},
		{
		    "x": 1000,
		    "y": -1618.0339900000001,
		    "z": 0
		}
	    ]
	},
	"7": {
	    "id": 7,
	    "pts": [
		{
		    "x": 1000,
		    "y": 1618.0339900000001,
		    "z": 0
		},
		{
		    "x": 1618.0339900000001,
		    "y": 0,
		    "z": 1000
		},
		{
		    "x": 1618.0339900000001,
		    "y": 0,
		    "z": -1000
		}
	    ]
	},
	"8": {
	    "id": 8,
	    "pts": [
		{
		    "x": 1000,
		    "y": 1618.0339900000001,
		    "z": 0
		},
		{
		    "x": 0,
		    "y": 1000,
		    "z": 1618.0339900000001
		},
		{
		    "x": 1618.0339900000001,
		    "y": 0,
		    "z": 1000
		}
	    ]
	},
	"9": {
	    "id": 9,
	    "pts": [
		{
		    "x": 1618.0339900000001,
		    "y": 0,
		    "z": 1000
		},
		{
		    "x": 1000,
		    "y": -1618.0339900000001,
		    "z": 0
		},
		{
		    "x": 1618.0339900000001,
		    "y": 0,
		    "z": -1000
		}
	    ]
	},
	"10": {
	    "id": 10,
	    "pts": [
		{
		    "x": 1618.0339900000001,
		    "y": 0,
		    "z": 1000
		},
		{
		    "x": 0,
		    "y": 1000,
		    "z": 1618.0339900000001
		},
		{
		    "x": 0,
		    "y": -1000,
		    "z": 1618.0339900000001
		}
	    ]
	},
	"11": {
	    "id": 11,
	    "pts": [
		{
		    "x": 1618.0339900000001,
		    "y": 0,
		    "z": 1000
		},
		{
		    "x": 0,
		    "y": -1000,
		    "z": 1618.0339900000001
		},
		{
		    "x": 1000,
		    "y": -1618.0339900000001,
		    "z": 0
		}
	    ]
	},
	"12": {
	    "id": 12,
	    "pts": [
		{
		    "x": -1000,
		    "y": 1618.0339900000001,
		    "z": 0
		},
		{
		    "x": 1000,
		    "y": 1618.0339900000001,
		    "z": 0
		},
		{
		    "x": 0,
		    "y": 1000,
		    "z": -1618.0339900000001
		}
	    ]
	},
	"13": {
	    "id": 13,
	    "pts": [
		{
		    "x": -1618.0339900000001,
		    "y": 0,
		    "z": -1000
		},
		{
		    "x": -1000,
		    "y": 1618.0339900000001,
		    "z": 0
		},
		{
		    "x": 0,
		    "y": 1000,
		    "z": -1618.0339900000001
		}
	    ]
	},
	"14": {
	    "id": 14,
	    "pts": [
		{
		    "x": -1000,
		    "y": -1618.0339900000001,
		    "z": 0
		},
		{
		    "x": -1618.0339900000001,
		    "y": 0,
		    "z": 1000
		},
		{
		    "x": -1618.0339900000001,
		    "y": 0,
		    "z": -1000
		}
	    ]
	},
	"15": {
	    "id": 15,
	    "pts": [
		{
		    "x": 0,
		    "y": 1000,
		    "z": -1618.0339900000001
		},
		{
		    "x": 1618.0339900000001,
		    "y": 0,
		    "z": -1000
		},
		{
		    "x": 0,
		    "y": -1000,
		    "z": -1618.0339900000001
		}
	    ]
	},
	"16": {
	    "id": 16,
	    "pts": [
		{
		    "x": -1000,
		    "y": -1618.0339900000001,
		    "z": 0
		},
		{
		    "x": -1618.0339900000001,
		    "y": 0,
		    "z": -1000
		},
		{
		    "x": 0,
		    "y": -1000,
		    "z": -1618.0339900000001
		}
	    ]
	},
	"17": {
	    "id": 17,
	    "pts": [
		{
		    "x": -1618.0339900000001,
		    "y": 0,
		    "z": -1000
		},
		{
		    "x": 0,
		    "y": 1000,
		    "z": -1618.0339900000001
		},
		{
		    "x": 0,
		    "y": -1000,
		    "z": -1618.0339900000001
		}
	    ]
	},
	"18": {
	    "id": 18,
	    "pts": [
		{
		    "x": 0,
		    "y": 1000,
		    "z": -1618.0339900000001
		},
		{
		    "x": 1000,
		    "y": 1618.0339900000001,
		    "z": 0
		},
		{
		    "x": 1618.0339900000001,
		    "y": 0,
		    "z": -1000
		}
	    ]
	},
	"19": {
	    "id": 19,
	    "pts": [
		{
		    "x": -1618.0339900000001,
		    "y": 0,
		    "z": 1000
		},
		{
		    "x": -1000,
		    "y": 1618.0339900000001,
		    "z": 0
		},
		{
		    "x": -1618.0339900000001,
		    "y": 0,
		    "z": -1000
		}
	    ]
	}
    }
}

